%YAML 1.1
%TAG !u! tag:unity3d.com,2011:
--- !u!1 &1398504370414845828
GameObject:
  m_ObjectHideFlags: 0
  m_CorrespondingSourceObject: {fileID: 0}
  m_PrefabInstance: {fileID: 0}
  m_PrefabAsset: {fileID: 0}
  serializedVersion: 6
  m_Component:
  - component: {fileID: 1720188469751931327}
  - component: {fileID: 5661874491873285843}
  m_Layer: 0
  m_Name: Survival6
  m_TagString: Untagged
  m_Icon: {fileID: 0}
  m_NavMeshLayer: 0
  m_StaticEditorFlags: 0
  m_IsActive: 1
--- !u!4 &1720188469751931327
Transform:
  m_ObjectHideFlags: 0
  m_CorrespondingSourceObject: {fileID: 0}
  m_PrefabInstance: {fileID: 0}
  m_PrefabAsset: {fileID: 0}
  m_GameObject: {fileID: 1398504370414845828}
  m_LocalRotation: {x: 0, y: 0, z: 0, w: 1}
  m_LocalPosition: {x: 0, y: 0, z: 0}
  m_LocalScale: {x: 1, y: 1, z: 1}
  m_Children: []
  m_Father: {fileID: 0}
  m_RootOrder: 0
  m_LocalEulerAnglesHint: {x: 0, y: 0, z: 0}
--- !u!114 &5661874491873285843
MonoBehaviour:
  m_ObjectHideFlags: 0
  m_CorrespondingSourceObject: {fileID: 0}
  m_PrefabInstance: {fileID: 0}
  m_PrefabAsset: {fileID: 0}
  m_GameObject: {fileID: 1398504370414845828}
  m_Enabled: 1
  m_EditorHideFlags: 0
  m_Script: {fileID: 11500000, guid: 12729540b7b1d934f9ff48d89c16846d, type: 3}
  m_Name: 
  m_EditorClassIdentifier: 
  damageEnemy: 300
  maxEnemyhp: 700
  spriteEnemy: {fileID: 21300000, guid: 514053c792e50f841b9d140574d79432, type: 3}
  iconDamage: {fileID: 21300000, guid: bbee74ba5b9975848a68c7086dfdd385, type: 3}
  damageAudio: {fileID: 8300000, guid: c04f1413fb0c05343bd7b996b5ea604d, type: 3}
